version 1
nodes
  0 "Bone01" -1
  1 "Bone02" 0
end
skeleton
  time 0
    0 0.000000 3.961539 0.000033 0.000000 0.000000 0.000000
    1 0.000000 -8.246637 0.000000 0.000000 0.000000 0.000000
end
triangles
nade.bmp
  1 -0.760000 -2.195098 -1.379967 -0.522223 -0.603027 -0.603027 0.984127 0.492063
  1 -1.520000 -2.195098 -0.059967 -0.783336 -0.603028 0.150807 0.825397 0.492063
  1 -1.520000 3.934902 -0.059967 -0.783336 0.603028 -0.150807 0.825397 0.000000
nade.bmp
  1 -1.520000 3.934902 -0.059967 -0.783336 0.603028 -0.150807 0.825397 0.000000
  1 -1.520000 -2.195098 -0.059967 -0.783336 -0.603028 0.150807 0.825397 0.492063
  1 -0.760000 3.934902 1.250033 -0.522223 0.603027 0.603027 0.666667 0.000000
nade.bmp
  1 -1.520000 -2.195098 -0.059967 -0.783336 -0.603028 0.150807 0.825397 0.492063
  1 -0.760000 -2.195098 1.250033 -0.261100 -0.603001 0.753801 0.666667 0.492063
  1 -0.760000 3.934902 1.250033 -0.522223 0.603027 0.603027 0.666667 0.000000
nade.bmp
  1 -0.760000 3.934902 1.250033 -0.522223 0.603027 0.603027 0.666667 0.000000
  1 -0.760000 -2.195098 1.250033 -0.261100 -0.603001 0.753801 0.666667 0.492063
  1 0.760000 3.934902 1.250033 0.261100 0.603001 0.753801 0.492063 0.000000
nade.bmp
  1 -0.760000 -2.195098 1.250033 -0.261100 -0.603001 0.753801 0.666667 0.492063
  1 0.760000 -2.195098 1.250033 0.522223 -0.603027 0.603027 0.492063 0.492063
  1 0.760000 3.934902 1.250033 0.261100 0.603001 0.753801 0.492063 0.000000
nade.bmp
  1 0.760000 3.934902 1.250033 0.261100 0.603001 0.753801 0.492063 0.000000
  1 0.760000 -2.195098 1.250033 0.522223 -0.603027 0.603027 0.492063 0.492063
  1 1.520000 3.934902 -0.059967 0.783336 0.603028 0.150807 0.333333 0.000000
nade.bmp
  1 0.760000 -2.195098 1.250033 0.522223 -0.603027 0.603027 0.492063 0.492063
  1 1.520000 -2.195098 -0.059967 0.783336 -0.603028 -0.150807 0.333333 0.492063
  1 1.520000 3.934902 -0.059967 0.783336 0.603028 0.150807 0.333333 0.000000
nade.bmp
  1 1.520000 3.934902 -0.059967 0.783336 0.603028 0.150807 0.333333 0.000000
  1 1.520000 -2.195098 -0.059967 0.783336 -0.603028 -0.150807 0.333333 0.492063
  1 0.760000 3.934902 -1.379967 0.522223 0.603027 -0.603027 0.174603 0.000000
nade.bmp
  1 1.520000 -2.195098 -0.059967 0.783336 -0.603028 -0.150807 0.333333 0.492063
  1 0.760000 -2.195098 -1.379967 0.261100 -0.603001 -0.753801 0.174603 0.492063
  1 0.760000 3.934902 -1.379967 0.522223 0.603027 -0.603027 0.174603 0.000000
nade.bmp
  1 0.760000 3.934902 -1.379967 0.522223 0.603027 -0.603027 0.174603 0.000000
  1 0.760000 -2.195098 -1.379967 0.261100 -0.603001 -0.753801 0.174603 0.492063
  1 -0.760000 3.934902 -1.379967 -0.261100 0.603001 -0.753801 0.015873 0.000000
nade.bmp
  1 0.760000 -2.195098 -1.379967 0.261100 -0.603001 -0.753801 0.174603 0.492063
  1 -0.760000 -2.195098 -1.379967 -0.522223 -0.603027 -0.603027 0.015873 0.492063
  1 -0.760000 3.934902 -1.379967 -0.261100 0.603001 -0.753801 0.015873 0.000000
nade.bmp
  1 -0.450000 -4.285098 -0.829967 -0.461215 -0.680723 -0.569119 0.587302 0.761905
  1 -0.890000 -4.285098 -0.059967 -0.723498 -0.680698 0.114900 0.492063 0.761905
  1 -1.530000 -2.565098 -0.059967 -0.901963 0.395384 -0.173593 0.492063 0.507937
nade.bmp
  1 -1.530000 -2.565098 -0.059967 -0.901963 0.395384 -0.173593 0.492063 0.507937
  1 -0.890000 -4.285098 -0.059967 -0.723498 -0.680698 0.114900 0.492063 0.761905
  1 -0.760000 -2.565098 1.250033 -0.601313 0.395409 0.694316 0.396825 0.507937
nade.bmp
  1 -0.890000 -4.285098 -0.059967 -0.723498 -0.680698 0.114900 0.492063 0.761905
  1 -0.450000 -4.285098 0.700033 -0.262299 -0.680697 0.683997 0.396825 0.761905
  1 -0.760000 -2.565098 1.250033 -0.601313 0.395409 0.694316 0.396825 0.507937
nade.bmp
  1 -0.760000 -2.565098 1.250033 -0.601313 0.395409 0.694316 0.396825 0.507937
  1 -0.450000 -4.285098 0.700033 -0.262299 -0.680697 0.683997 0.396825 0.761905
  1 0.750000 -2.565098 1.250033 0.300698 0.395398 0.867895 0.285714 0.507937
nade.bmp
  1 -0.450000 -4.285098 0.700033 -0.262299 -0.680697 0.683997 0.396825 0.761905
  1 0.430000 -4.285098 0.700033 0.461215 -0.680723 0.569119 0.285714 0.761905
  1 0.750000 -2.565098 1.250033 0.300698 0.395398 0.867895 0.285714 0.507937
nade.bmp
  1 0.750000 -2.565098 1.250033 0.300698 0.395398 0.867895 0.285714 0.507937
  1 0.430000 -4.285098 0.700033 0.461215 -0.680723 0.569119 0.285714 0.761905
  1 1.510000 -2.565098 -0.059967 0.901963 0.395384 0.173593 0.190476 0.507937
nade.bmp
  1 0.430000 -4.285098 0.700033 0.461215 -0.680723 0.569119 0.285714 0.761905
  1 0.880000 -4.285098 -0.059967 0.723498 -0.680698 -0.114900 0.190476 0.761905
  1 1.510000 -2.565098 -0.059967 0.901963 0.395384 0.173593 0.190476 0.507937
nade.bmp
  1 1.510000 -2.565098 -0.059967 0.901963 0.395384 0.173593 0.190476 0.507937
  1 0.880000 -4.285098 -0.059967 0.723498 -0.680698 -0.114900 0.190476 0.761905
  1 0.750000 -2.565098 -1.379967 0.601313 0.395409 -0.694316 0.095238 0.507937
nade.bmp
  1 0.880000 -4.285098 -0.059967 0.723498 -0.680698 -0.114900 0.190476 0.761905
  1 0.430000 -4.285098 -0.829967 0.262299 -0.680697 -0.683997 0.095238 0.761905
  1 0.750000 -2.565098 -1.379967 0.601313 0.395409 -0.694316 0.095238 0.507937
nade.bmp
  1 0.750000 -2.565098 -1.379967 0.601313 0.395409 -0.694316 0.095238 0.507937
  1 0.430000 -4.285098 -0.829967 0.262299 -0.680697 -0.683997 0.095238 0.761905
  1 -0.760000 -2.565098 -1.379967 -0.300698 0.395398 -0.867895 0.000000 0.507937
nade.bmp
  1 0.430000 -4.285098 -0.829967 0.262299 -0.680697 -0.683997 0.095238 0.761905
  1 -0.450000 -4.285098 -0.829967 -0.461215 -0.680723 -0.569119 0.000000 0.761905
  1 -0.760000 -2.565098 -1.379967 -0.300698 0.395398 -0.867895 0.000000 0.507937
nade.bmp
  1 0.000000 3.934902 -0.059967 0.000000 1.000000 0.000000 0.793651 0.873016
  1 -0.760000 3.934902 -1.379967 -0.261100 0.603001 -0.753801 0.666667 0.920635
  1 -1.520000 3.934902 -0.059967 -0.783336 0.603028 -0.150807 0.793651 0.984127
nade.bmp
  1 0.000000 3.934902 -0.059967 0.000000 1.000000 0.000000 0.793651 0.873016
  1 0.760000 3.934902 -1.379967 0.522223 0.603027 -0.603027 0.666667 0.825397
  1 -0.760000 3.934902 -1.379967 -0.261100 0.603001 -0.753801 0.666667 0.920635
nade.bmp
  1 0.000000 3.934902 -0.059967 0.000000 1.000000 0.000000 0.793651 0.873016
  1 1.520000 3.934902 -0.059967 0.783336 0.603028 0.150807 0.793651 0.777778
  1 0.760000 3.934902 -1.379967 0.522223 0.603027 -0.603027 0.666667 0.825397
nade.bmp
  1 0.000000 3.934902 -0.059967 0.000000 1.000000 0.000000 0.793651 0.873016
  1 0.760000 3.934902 1.250033 0.261100 0.603001 0.753801 0.904762 0.825397
  1 1.520000 3.934902 -0.059967 0.783336 0.603028 0.150807 0.793651 0.777778
nade.bmp
  1 0.000000 3.934902 -0.059967 0.000000 1.000000 0.000000 0.793651 0.873016
  1 -0.760000 3.934902 1.250033 -0.522223 0.603027 0.603027 0.904762 0.920635
  1 0.760000 3.934902 1.250033 0.261100 0.603001 0.753801 0.904762 0.825397
nade.bmp
  1 0.000000 3.934902 -0.059967 0.000000 1.000000 0.000000 0.793651 0.873016
  1 -1.520000 3.934902 -0.059967 -0.783336 0.603028 -0.150807 0.793651 0.984127
  1 -0.760000 3.934902 1.250033 -0.522223 0.603027 0.603027 0.904762 0.920635
nade.bmp
  1 0.000000 -2.195098 -0.059967 0.000000 -1.000000 0.000000 0.793651 0.873016
  1 -1.520000 -2.195098 -0.059967 -0.783336 -0.603028 0.150807 0.793651 0.984127
  1 -0.760000 -2.195098 -1.379967 -0.522223 -0.603027 -0.603027 0.666667 0.920635
nade.bmp
  1 0.000000 -2.195098 -0.059967 0.000000 -1.000000 0.000000 0.793651 0.873016
  1 -0.760000 -2.195098 1.250033 -0.261100 -0.603001 0.753801 0.904762 0.920635
  1 -1.520000 -2.195098 -0.059967 -0.783336 -0.603028 0.150807 0.793651 0.984127
nade.bmp
  1 0.000000 -2.195098 -0.059967 0.000000 -1.000000 0.000000 0.793651 0.873016
  1 0.760000 -2.195098 1.250033 0.522223 -0.603027 0.603027 0.904762 0.825397
  1 -0.760000 -2.195098 1.250033 -0.261100 -0.603001 0.753801 0.904762 0.920635
nade.bmp
  1 0.000000 -2.195098 -0.059967 0.000000 -1.000000 0.000000 0.793651 0.873016
  1 1.520000 -2.195098 -0.059967 0.783336 -0.603028 -0.150807 0.793651 0.777778
  1 0.760000 -2.195098 1.250033 0.522223 -0.603027 0.603027 0.904762 0.825397
nade.bmp
  1 0.000000 -2.195098 -0.059967 0.000000 -1.000000 0.000000 0.793651 0.873016
  1 0.760000 -2.195098 -1.379967 0.261100 -0.603001 -0.753801 0.666667 0.825397
  1 1.520000 -2.195098 -0.059967 0.783336 -0.603028 -0.150807 0.793651 0.777778
nade.bmp
  1 0.000000 -2.195098 -0.059967 0.000000 -1.000000 0.000000 0.793651 0.873016
  1 -0.760000 -2.195098 -1.379967 -0.522223 -0.603027 -0.603027 0.666667 0.920635
  1 0.760000 -2.195098 -1.379967 0.261100 -0.603001 -0.753801 0.666667 0.825397
nade.bmp
  1 0.000000 -2.565098 -0.059967 0.000000 1.000000 0.000000 0.793651 0.873016
  1 -0.760000 -2.565098 -1.379967 -0.300698 0.395398 -0.867895 0.857143 0.968254
  1 -1.530000 -2.565098 -0.059967 -0.901963 0.395384 -0.173593 0.936508 0.873016
nade.bmp
  1 0.000000 -2.565098 -0.059967 0.000000 1.000000 0.000000 0.793651 0.873016
  1 0.750000 -2.565098 -1.379967 0.601313 0.395409 -0.694316 0.714286 0.968254
  1 -0.760000 -2.565098 -1.379967 -0.300698 0.395398 -0.867895 0.857143 0.968254
nade.bmp
  1 0.000000 -2.565098 -0.059967 0.000000 1.000000 0.000000 0.793651 0.873016
  1 1.510000 -2.565098 -0.059967 0.901963 0.395384 0.173593 0.634921 0.873016
  1 0.750000 -2.565098 -1.379967 0.601313 0.395409 -0.694316 0.714286 0.968254
nade.bmp
  1 0.000000 -2.565098 -0.059967 0.000000 1.000000 0.000000 0.793651 0.873016
  1 0.750000 -2.565098 1.250033 0.300698 0.395398 0.867895 0.714286 0.793651
  1 1.510000 -2.565098 -0.059967 0.901963 0.395384 0.173593 0.634921 0.873016
nade.bmp
  1 0.000000 -2.565098 -0.059967 0.000000 1.000000 0.000000 0.793651 0.873016
  1 -0.760000 -2.565098 1.250033 -0.601313 0.395409 0.694316 0.857143 0.793651
  1 0.750000 -2.565098 1.250033 0.300698 0.395398 0.867895 0.714286 0.793651
nade.bmp
  1 0.000000 -2.565098 -0.059967 0.000000 1.000000 0.000000 0.793651 0.873016
  1 -1.530000 -2.565098 -0.059967 -0.901963 0.395384 -0.173593 0.936508 0.873016
  1 -0.760000 -2.565098 1.250033 -0.601313 0.395409 0.694316 0.857143 0.793651
nade.bmp
  1 0.000000 -4.515098 -0.059967 0.000000 -1.000000 0.000000 0.142857 0.888889
  1 -0.890000 -4.285098 -0.059967 -0.723498 -0.680698 0.114900 0.142857 0.984127
  1 -0.450000 -4.285098 -0.829967 -0.461215 -0.680723 -0.569119 0.047619 0.936508
nade.bmp
  1 0.000000 -4.515098 -0.059967 0.000000 -1.000000 0.000000 0.142857 0.888889
  1 -0.450000 -4.285098 0.700033 -0.262299 -0.680697 0.683997 0.253968 0.936508
  1 -0.890000 -4.285098 -0.059967 -0.723498 -0.680698 0.114900 0.142857 0.984127
nade.bmp
  1 0.000000 -4.515098 -0.059967 0.000000 -1.000000 0.000000 0.142857 0.888889
  1 0.430000 -4.285098 0.700033 0.461215 -0.680723 0.569119 0.253968 0.841270
  1 -0.450000 -4.285098 0.700033 -0.262299 -0.680697 0.683997 0.253968 0.936508
nade.bmp
  1 0.000000 -4.515098 -0.059967 0.000000 -1.000000 0.000000 0.142857 0.888889
  1 0.880000 -4.285098 -0.059967 0.723498 -0.680698 -0.114900 0.142857 0.793651
  1 0.430000 -4.285098 0.700033 0.461215 -0.680723 0.569119 0.253968 0.841270
nade.bmp
  1 0.000000 -4.515098 -0.059967 0.000000 -1.000000 0.000000 0.142857 0.888889
  1 0.430000 -4.285098 -0.829967 0.262299 -0.680697 -0.683997 0.047619 0.841270
  1 0.880000 -4.285098 -0.059967 0.723498 -0.680698 -0.114900 0.142857 0.793651
nade.bmp
  1 0.000000 -4.515098 -0.059967 0.000000 -1.000000 0.000000 0.142857 0.888889
  1 -0.450000 -4.285098 -0.829967 -0.461215 -0.680723 -0.569119 0.047619 0.936508
  1 0.430000 -4.285098 -0.829967 0.262299 -0.680697 -0.683997 0.047619 0.841270
nade.bmp
  1 0.070000 -1.715098 0.950033 0.760427 0.000000 0.649423 0.888889 0.523810
  1 0.070000 -3.145098 0.950033 0.760427 0.000000 0.649423 0.888889 0.746032
  1 1.010000 -1.715098 -0.129967 0.760427 0.000000 0.649423 0.809524 0.523810
nade.bmp
  1 1.010000 -1.715098 -0.129967 0.760427 0.000000 0.649423 0.809524 0.523810
  1 0.070000 -3.145098 0.950033 0.760427 0.000000 0.649423 0.888889 0.746032
  1 1.010000 -3.145098 -0.129967 0.760427 0.000000 0.649423 0.809524 0.746032
nade.bmp
  1 -1.010000 -1.715098 0.020033 -0.649423 0.000000 0.760427 0.952381 0.523810
  1 -1.010000 -3.145098 0.020033 -0.649423 0.000000 0.760427 0.952381 0.746032
  1 0.070000 -1.715098 0.950033 -0.649423 0.000000 0.760427 0.888889 0.523810
nade.bmp
  1 0.070000 -1.715098 0.950033 -0.649423 0.000000 0.760427 0.888889 0.523810
  1 -1.010000 -3.145098 0.020033 -0.649423 0.000000 0.760427 0.952381 0.746032
  1 0.070000 -3.145098 0.950033 -0.649423 0.000000 0.760427 0.888889 0.746032
nade.bmp
  1 -0.080000 -1.715098 -1.059967 -0.760427 0.000000 -0.649423 0.730159 0.523810
  1 -0.080000 -3.145098 -1.059967 -0.760427 0.000000 -0.649423 0.730159 0.746032
  1 -1.010000 -1.715098 0.020033 -0.760427 0.000000 -0.649423 0.666667 0.523810
nade.bmp
  1 -1.010000 -1.715098 0.020033 -0.760427 0.000000 -0.649423 0.666667 0.523810
  1 -0.080000 -3.145098 -1.059967 -0.760427 0.000000 -0.649423 0.730159 0.746032
  1 -1.010000 -3.145098 0.020033 -0.760427 0.000000 -0.649423 0.666667 0.746032
nade.bmp
  1 1.010000 -1.715098 -0.129967 0.649423 0.000000 -0.760427 0.809524 0.523810
  1 1.010000 -3.145098 -0.129967 0.649423 0.000000 -0.760427 0.809524 0.746032
  1 -0.080000 -1.715098 -1.059967 0.649423 0.000000 -0.760427 0.730159 0.523810
nade.bmp
  1 -0.080000 -1.715098 -1.059967 0.649423 0.000000 -0.760427 0.730159 0.523810
  1 1.010000 -3.145098 -0.129967 0.649423 0.000000 -0.760427 0.809524 0.746032
  1 -0.080000 -3.145098 -1.059967 0.649423 0.000000 -0.760427 0.730159 0.746032
nade.bmp
  1 -0.760000 -2.195098 -1.379967 -0.522223 -0.603027 -0.603027 0.984127 0.492063
  1 -1.520000 3.934902 -0.059967 -0.783336 0.603028 -0.150807 0.825397 0.000000
  1 -0.760000 3.934902 -1.379967 -0.261100 0.603001 -0.753801 0.984127 0.000000
nade.bmp
  1 -0.450000 -4.285098 -0.829967 -0.461215 -0.680723 -0.569119 0.587302 0.761905
  1 -1.530000 -2.565098 -0.059967 -0.901963 0.395384 -0.173593 0.492063 0.507937
  1 -0.760000 -2.565098 -1.379967 -0.300698 0.395398 -0.867895 0.587302 0.507937
end
