version 1
nodes
  0 "Bone51" -1
  1 "Bone49" 0
  2 "Bone55" 0
  3 "Bone53" 0
  4 "Bone24" 0
  5 "Bone26" 0
  6 "Bone03" 5
  7 "Bone04" 6
  8 "Bone05" 7
  9 "Bone06" 8
  10 "Bone08" 6
  11 "Bone09" 10
  12 "Bone10" 11
  13 "Bone12" 6
  14 "Bone13" 13
  15 "Bone14" 14
  16 "Bone16" 6
  17 "Bone17" 16
  18 "Bone18" 17
  19 "Bone20" 6
  20 "Bone21" 19
  21 "Bone22" 20
  22 "Bone47" 6
  23 "Bone01" 6
end
skeleton
  time 0
    0 -3.696576 -4.230749 -3.854250 1.559442 -1.540039 -1.559610
    1 1.161567 0.106627 0.000000 0.000000 0.000000 0.000000
    2 2.112626 -1.593401 0.000000 0.000000 0.000000 0.000000
    3 1.465898 -18.342178 0.000000 0.000000 0.000000 0.000000
    4 -1.892831 6.732486 0.728174 3.124140 0.000000 -2.967096
    5 0.206436 -12.693528 -0.019062 0.000000 1.570451 0.000000
    6 1.355513 3.966877 -2.086888 3.117064 -0.013041 1.928108
    7 -0.569091 0.222565 -0.397111 0.068136 -0.246714 -0.152089
    8 -2.180926 -0.574814 -0.787554 0.041930 -0.043827 -0.663988
    9 -0.287240 -1.405268 -0.074537 0.000000 0.000000 0.095993
    10 -0.931362 -2.045957 0.362517 0.183260 0.000000 -0.061087
    11 0.010424 -1.273300 -0.147357 0.279253 0.000000 0.000000
    12 0.011278 -0.878209 -0.342708 0.706858 0.000000 0.000000
    13 -0.149843 -2.089283 0.362516 0.314159 0.000000 0.000000
    14 0.012010 -1.623649 -0.122457 0.733038 0.000000 0.000000
    15 -0.010196 -1.032789 -0.489109 0.279253 0.000000 0.000000
    16 0.613185 -1.897942 0.362517 0.427606 0.000000 0.000000
    17 -0.000487 -1.577277 -0.172651 0.741765 0.000000 0.000000
    18 -0.000486 -0.997303 -0.424288 -0.026180 0.000000 0.000000
    19 1.449176 -1.715638 0.358114 0.462512 0.000000 0.000000
    20 0.021054 -1.176740 -0.217423 0.392699 0.000000 0.000000
    21 -0.056624 -0.823484 -0.460563 0.017453 0.000000 0.000000
    22 0.028514 1.174229 0.003077 0.478521 -0.317905 -0.285187
    23 7.279599 0.817010 -3.391950 0.015724 0.062984 -1.186954
  time 1
    0 -3.696576 -4.230749 -3.854250 1.559442 -1.540039 -1.559610
    1 1.161567 0.106627 0.000000 0.000000 0.000000 0.000000
    2 2.112626 -1.593401 0.000000 0.000000 0.000000 0.000000
    3 1.465898 -18.342178 0.000000 0.000000 0.000000 0.000000
    4 -1.892831 6.732486 0.728174 3.124140 0.000000 -2.967096
    5 0.206436 -12.693528 -0.019062 0.000000 1.570451 0.000000
    6 1.355513 3.966877 -2.086888 3.117064 -0.013041 1.928108
    7 -0.569091 0.222565 -0.397111 0.068136 -0.246714 -0.152089
    8 -2.180926 -0.574814 -0.787554 0.041930 -0.043827 -0.663988
    9 -0.287240 -1.405268 -0.074537 0.000000 0.000000 0.095993
    10 -0.931362 -2.045957 0.362517 0.183260 0.000000 -0.061087
    11 0.010424 -1.273300 -0.147357 0.279253 0.000000 0.000000
    12 0.011278 -0.878209 -0.342708 0.706858 0.000000 0.000000
    13 -0.149843 -2.089283 0.362516 0.314159 0.000000 0.000000
    14 0.012010 -1.623649 -0.122457 0.733038 0.000000 0.000000
    15 -0.010196 -1.032789 -0.489109 0.279253 0.000000 0.000000
    16 0.613185 -1.897942 0.362517 0.427606 0.000000 0.000000
    17 -0.000487 -1.577277 -0.172651 0.741765 0.000000 0.000000
    18 -0.000486 -0.997303 -0.424288 -0.026180 0.000000 0.000000
    19 1.449176 -1.715638 0.358114 0.462512 0.000000 0.000000
    20 0.021054 -1.176740 -0.217423 0.392699 0.000000 0.000000
    21 -0.056624 -0.823484 -0.460563 0.017453 0.000000 0.000000
    22 0.028514 1.174229 0.003077 0.478521 -0.317905 -0.285187
    23 7.279599 0.817010 -3.391950 0.015724 0.062984 -1.186954
  time 2
    0 -3.571572 -4.617479 -3.776123 -1.562000 -1.531755 1.561953
    1 1.161567 0.106627 0.000000 0.000000 0.000000 0.000000
    2 2.112626 -1.460584 0.000000 0.000000 0.000000 0.000000
    3 1.465898 -18.342178 0.000000 0.000000 0.000000 0.000000
    4 -1.892831 6.732486 0.728174 3.124140 0.000000 -2.967096
    5 0.225968 -12.810719 -0.019062 0.000000 1.570451 0.000000
    6 1.355513 3.966877 -2.086888 3.117064 -0.013041 1.928108
    7 -0.569091 0.222565 -0.397111 0.068136 -0.246714 -0.152089
    8 -2.180926 -0.574814 -0.787554 0.041930 -0.043827 -0.663988
    9 -0.287240 -1.405268 -0.074537 0.000000 0.000000 0.095993
    10 -0.931362 -2.045957 0.362517 0.183260 0.000000 -0.061087
    11 0.010424 -1.273300 -0.147357 0.279253 0.000000 0.000000
    12 0.011278 -0.878209 -0.342708 0.706858 0.000000 0.000000
    13 -0.149843 -2.089283 0.362516 0.314159 0.000000 0.000000
    14 0.012010 -1.623649 -0.122457 0.733038 0.000000 0.000000
    15 -0.010196 -1.032789 -0.489109 0.279253 0.000000 0.000000
    16 0.613185 -1.897942 0.362517 0.427606 0.000000 0.000000
    17 -0.000487 -1.577277 -0.172651 0.741765 0.000000 0.000000
    18 -0.000486 -0.997303 -0.424288 -0.026180 0.000000 0.000000
    19 1.449176 -1.715638 0.358114 0.462512 0.000000 0.000000
    20 0.021054 -1.176740 -0.217423 0.392699 0.000000 0.000000
    21 -0.056624 -0.823484 -0.460563 0.017453 0.000000 0.000000
    22 0.028514 1.174229 0.003077 0.478521 -0.317905 -0.285187
    23 7.279599 0.817010 -3.391950 0.015724 0.062984 -1.186954
  time 3
    0 -3.450475 -5.137027 -3.955816 -0.000083 -1.566668 -0.000072
    1 1.161567 0.106627 0.000000 0.000000 0.000000 0.000000
    2 2.116532 -1.323861 0.000000 0.000000 0.000000 0.000000
    3 1.465898 -18.342178 0.000000 0.000000 0.000000 0.000000
    4 -1.892831 6.732486 0.728174 3.124140 0.000000 -2.967096
    5 0.245500 -12.931817 -0.019062 0.000000 1.570451 0.000000
    6 1.355513 3.966877 -2.086888 3.117064 -0.013041 1.928108
    7 -0.569091 0.222565 -0.397111 0.068136 -0.246714 -0.152089
    8 -2.180926 -0.574814 -0.787554 0.041930 -0.043827 -0.663988
    9 -0.287240 -1.405268 -0.074537 0.000000 0.000000 0.095993
    10 -0.931362 -2.045957 0.362517 0.183260 0.000000 -0.061087
    11 0.010424 -1.273300 -0.147357 0.279253 0.000000 0.000000
    12 0.011278 -0.878209 -0.342708 0.706858 0.000000 0.000000
    13 -0.149843 -2.089283 0.362516 0.314159 0.000000 0.000000
    14 0.012010 -1.623649 -0.122457 0.733038 0.000000 0.000000
    15 -0.010196 -1.032789 -0.489109 0.279253 0.000000 0.000000
    16 0.613185 -1.897942 0.362517 0.427606 0.000000 0.000000
    17 -0.000487 -1.577277 -0.172651 0.741765 0.000000 0.000000
    18 -0.000486 -0.997303 -0.424288 -0.026180 0.000000 0.000000
    19 1.449176 -1.715638 0.358114 0.462512 0.000000 0.000000
    20 0.021054 -1.176740 -0.217423 0.392699 0.000000 0.000000
    21 -0.056624 -0.823484 -0.460563 0.017453 0.000000 0.000000
    22 0.028514 1.174229 0.003077 0.478521 -0.317905 -0.285187
    23 7.279599 0.817010 -3.391950 0.015724 0.062984 -1.186954
  time 4
    0 -3.364535 -5.590165 -4.127696 1.559442 -1.540039 -1.559610
    1 1.161567 0.106627 0.000000 0.000000 0.000000 0.000000
    2 2.112626 -1.593401 0.000000 0.000000 0.000000 0.000000
    3 1.465898 -18.342178 0.000000 0.000000 0.000000 0.000000
    4 -1.892831 6.732486 0.728174 3.124140 0.000000 -2.967096
    5 0.206436 -12.693528 -0.019062 0.000000 1.570451 0.000000
    6 1.355513 3.966877 -2.086888 3.117064 -0.013041 1.928108
    7 -0.569091 0.222565 -0.397111 0.068136 -0.246714 -0.152089
    8 -2.180926 -0.574814 -0.787554 0.041930 -0.043827 -0.663988
    9 -0.287240 -1.405268 -0.074537 0.000000 0.000000 0.095993
    10 -0.931362 -2.045957 0.362517 0.183260 0.000000 -0.061087
    11 0.010424 -1.273300 -0.147357 0.279253 0.000000 0.000000
    12 0.011278 -0.878209 -0.342708 0.706858 0.000000 0.000000
    13 -0.149843 -2.089283 0.362516 0.314159 0.000000 0.000000
    14 0.012010 -1.623649 -0.122457 0.733038 0.000000 0.000000
    15 -0.010196 -1.032789 -0.489109 0.279253 0.000000 0.000000
    16 0.613185 -1.897942 0.362517 0.427606 0.000000 0.000000
    17 -0.000487 -1.577277 -0.172651 0.741765 0.000000 0.000000
    18 -0.000486 -0.997303 -0.424288 -0.026180 0.000000 0.000000
    19 1.449176 -1.715638 0.358114 0.462512 0.000000 0.000000
    20 0.021054 -1.176740 -0.217423 0.392699 0.000000 0.000000
    21 -0.056624 -0.823484 -0.460563 0.017453 0.000000 0.000000
    22 0.028514 1.174229 0.003077 0.478521 -0.317905 -0.285187
    23 7.279599 0.817010 -3.391950 0.015724 0.062984 -1.186954
  time 5
    0 -3.345003 -5.902675 -4.147228 2.399853 -1.508152 -2.398369
    1 1.161567 0.106627 0.000000 0.000000 0.000000 0.000000
    2 2.093094 -2.808282 0.000000 0.000000 0.000000 0.000000
    3 1.465898 -18.342178 0.000000 0.000000 0.000000 0.000000
    4 -1.892831 6.732486 0.728174 3.124140 0.000000 -2.967096
    5 0.018930 -11.623183 -0.019062 0.000000 1.570451 0.000000
    6 1.355513 3.966877 -2.086888 3.117064 -0.013041 1.928108
    7 -0.569091 0.222565 -0.397111 0.068136 -0.246714 -0.152089
    8 -2.180926 -0.574814 -0.787554 0.041930 -0.043827 -0.663988
    9 -0.287240 -1.405268 -0.074537 0.000000 0.000000 0.095993
    10 -0.931362 -2.045957 0.362517 0.183260 0.000000 -0.061087
    11 0.010424 -1.273300 -0.147357 0.279253 0.000000 0.000000
    12 0.011278 -0.878209 -0.342708 0.706858 0.000000 0.000000
    13 -0.149843 -2.089283 0.362516 0.314159 0.000000 0.000000
    14 0.012010 -1.623649 -0.122457 0.733038 0.000000 0.000000
    15 -0.010196 -1.032789 -0.489109 0.279253 0.000000 0.000000
    16 0.613185 -1.897942 0.362517 0.427606 0.000000 0.000000
    17 -0.000487 -1.577277 -0.172651 0.741765 0.000000 0.000000
    18 -0.000486 -0.997303 -0.424288 -0.026180 0.000000 0.000000
    19 1.449176 -1.715638 0.358114 0.462512 0.000000 0.000000
    20 0.021054 -1.176740 -0.217423 0.392699 0.000000 0.000000
    21 -0.056624 -0.823484 -0.460563 0.017453 0.000000 0.000000
    22 0.028514 1.174229 0.003077 0.478521 -0.317905 -0.285187
    23 7.279599 0.817010 -3.391950 0.015724 0.062984 -1.186954
  time 6
    0 -3.352816 -6.140963 -4.119883 2.615793 -1.463556 -2.612815
    1 1.161567 0.106627 0.000000 0.000000 0.000000 0.000000
    2 2.065750 -4.429425 0.000000 0.000000 0.000000 0.000000
    3 1.465898 -18.342178 0.000000 0.000000 0.000000 0.000000
    4 -1.892831 6.732486 0.728174 3.124140 0.000000 -2.967096
    5 -0.234984 -10.193452 -0.019062 0.000000 1.570451 0.000000
    6 1.355513 3.966877 -2.086888 3.117064 -0.013041 1.928108
    7 -0.569091 0.222565 -0.397111 0.068136 -0.246714 -0.152089
    8 -2.180926 -0.574814 -0.787554 0.041930 -0.043827 -0.663988
    9 -0.287240 -1.405268 -0.074537 0.000000 0.000000 0.095993
    10 -0.931362 -2.045957 0.362517 0.183260 0.000000 -0.061087
    11 0.010424 -1.273300 -0.147357 0.279253 0.000000 0.000000
    12 0.011278 -0.878209 -0.342708 0.706858 0.000000 0.000000
    13 -0.149843 -2.089283 0.362516 0.314159 0.000000 0.000000
    14 0.012010 -1.623649 -0.122457 0.733038 0.000000 0.000000
    15 -0.010196 -1.032789 -0.489109 0.279253 0.000000 0.000000
    16 0.613185 -1.897942 0.362517 0.427606 0.000000 0.000000
    17 -0.000487 -1.577277 -0.172651 0.741765 0.000000 0.000000
    18 -0.000486 -0.997303 -0.424288 -0.026180 0.000000 0.000000
    19 1.449176 -1.715638 0.358114 0.462512 0.000000 0.000000
    20 0.021054 -1.176740 -0.217423 0.392699 0.000000 0.000000
    21 -0.056624 -0.823484 -0.460563 0.017453 0.000000 0.000000
    22 0.028514 1.174229 0.003077 0.478521 -0.317905 -0.285187
    23 7.279599 0.817010 -3.391950 0.015724 0.062984 -1.186954
  time 7
    0 -3.364535 -6.238623 -4.127696 2.703754 -1.416917 -2.699148
    1 1.161567 0.106627 0.000000 0.000000 0.000000 0.000000
    2 2.050124 -5.241950 0.000000 0.000000 0.000000 0.000000
    3 1.465898 -18.342178 0.000000 0.000000 0.000000 0.000000
    4 -1.892831 6.732486 0.728174 3.124140 0.000000 -2.967096
    5 -0.359988 -9.474680 -0.019062 0.000000 1.570451 0.000000
    6 1.355513 3.966877 -2.086888 3.117064 -0.013041 1.928108
    7 -0.569091 0.222565 -0.397111 0.068136 -0.246714 -0.152089
    8 -2.180926 -0.574814 -0.787554 0.041930 -0.043827 -0.663988
    9 -0.287240 -1.405268 -0.074537 0.000000 0.000000 0.095993
    10 -0.931362 -2.045957 0.362517 0.183260 0.000000 -0.061087
    11 0.010424 -1.273300 -0.147357 0.279253 0.000000 0.000000
    12 0.011278 -0.878209 -0.342708 0.706858 0.000000 0.000000
    13 -0.149843 -2.089283 0.362516 0.314159 0.000000 0.000000
    14 0.012010 -1.623649 -0.122457 0.733038 0.000000 0.000000
    15 -0.010196 -1.032789 -0.489109 0.279253 0.000000 0.000000
    16 0.613185 -1.897942 0.362517 0.427606 0.000000 0.000000
    17 -0.000487 -1.577277 -0.172651 0.741765 0.000000 0.000000
    18 -0.000486 -0.997303 -0.424288 -0.026180 0.000000 0.000000
    19 1.449176 -1.715638 0.358114 0.462512 0.000000 0.000000
    20 0.021054 -1.176740 -0.217423 0.392699 0.000000 0.000000
    21 -0.056624 -0.823484 -0.460563 0.017453 0.000000 0.000000
    22 0.028514 1.174229 0.003077 0.478521 -0.317905 -0.285187
    23 7.279599 0.817010 -3.391950 0.015724 0.062984 -1.186954
  time 8
    0 -3.364535 -6.133151 -4.182385 2.574784 -1.447026 -2.571417
    1 1.161567 0.106627 0.000000 0.000000 0.000000 0.000000
    2 2.057937 -4.741935 0.000000 0.000000 0.000000 0.000000
    3 1.465898 -18.342178 0.000000 0.000000 0.000000 0.000000
    4 -1.892831 6.732486 0.728174 3.124140 0.000000 -3.010720
    5 -0.281860 -9.920006 -0.019062 0.000000 1.570451 0.000000
    6 1.355513 3.966877 -2.086888 3.117064 -0.013041 1.928108
    7 -0.569091 0.222565 -0.397111 0.068136 -0.246714 -0.152089
    8 -2.180926 -0.574814 -0.787554 0.041930 -0.043827 -0.663988
    9 -0.287240 -1.405268 -0.074537 0.000000 0.000000 0.095993
    10 -0.931362 -2.045957 0.362517 0.183260 0.000000 -0.061087
    11 0.010424 -1.273300 -0.147357 0.279253 0.000000 0.000000
    12 0.011278 -0.878209 -0.342708 0.706858 0.000000 0.000000
    13 -0.149843 -2.089283 0.362516 0.314159 0.000000 0.000000
    14 0.012010 -1.623649 -0.122457 0.733038 0.000000 0.000000
    15 -0.010196 -1.032789 -0.489109 0.279253 0.000000 0.000000
    16 0.613185 -1.897942 0.362517 0.427606 0.000000 0.000000
    17 -0.000487 -1.577277 -0.172651 0.741765 0.000000 0.000000
    18 -0.000486 -0.997303 -0.424288 -0.026180 0.000000 0.000000
    19 1.449176 -1.715638 0.358114 0.462512 0.000000 0.000000
    20 0.021054 -1.176740 -0.217423 0.392699 0.000000 0.000000
    21 -0.056624 -0.823484 -0.460563 0.017453 0.000000 0.000000
    22 0.028514 1.174229 0.003077 0.478521 -0.317905 -0.285187
    23 7.279599 0.817010 -3.391950 0.015724 0.062984 -1.186954
  time 9
    0 -3.364535 -5.902675 -4.256606 2.369818 -1.473807 -2.367584
    1 1.161567 0.106627 0.000000 0.000000 0.000000 0.000000
    2 2.077469 -3.601275 0.000000 0.000000 0.000000 0.000000
    3 1.465898 -18.342178 0.000000 0.000000 0.000000 0.000000
    4 -1.892831 6.732486 0.728174 3.124140 0.000000 -3.054344
    5 -0.106074 -10.923943 -0.019062 0.000000 1.570451 0.000000
    6 1.355513 3.966877 -2.086888 3.117064 -0.013041 1.928108
    7 -0.569091 0.222565 -0.397111 0.068136 -0.246714 -0.152089
    8 -2.180926 -0.574814 -0.787554 0.041930 -0.043827 -0.663988
    9 -0.287240 -1.405268 -0.074537 0.000000 0.000000 0.095993
    10 -0.931362 -2.045957 0.362517 0.183260 0.000000 -0.061087
    11 0.010424 -1.273300 -0.147357 0.279253 0.000000 0.000000
    12 0.011278 -0.878209 -0.342708 0.706858 0.000000 0.000000
    13 -0.149843 -2.089283 0.362516 0.314159 0.000000 0.000000
    14 0.012010 -1.623649 -0.122457 0.733038 0.000000 0.000000
    15 -0.010196 -1.032789 -0.489109 0.279253 0.000000 0.000000
    16 0.613185 -1.897942 0.362517 0.427606 0.000000 0.000000
    17 -0.000487 -1.577277 -0.172651 0.741765 0.000000 0.000000
    18 -0.000486 -0.997303 -0.424288 -0.026180 0.000000 0.000000
    19 1.449176 -1.715638 0.358114 0.462512 0.000000 0.000000
    20 0.021054 -1.176740 -0.217423 0.392699 0.000000 0.000000
    21 -0.056624 -0.823484 -0.460563 0.017453 0.000000 0.000000
    22 0.028514 1.174229 0.003077 0.478521 -0.317905 -0.285187
    23 7.279599 0.817010 -3.391950 0.015724 0.062984 -1.186954
  time 10
    0 -3.364535 -5.683918 -4.354266 2.036789 -1.493854 -2.035732
    1 1.161567 0.106627 0.000000 0.000000 0.000000 0.000000
    2 2.100907 -2.366862 0.000000 0.000000 0.000000 0.000000
    3 1.465898 -18.342178 0.000000 0.000000 0.000000 0.000000
    4 -1.892831 6.732486 0.728174 3.124140 0.000000 -3.097968
    5 0.089245 -12.009914 -0.019062 0.000000 1.570451 0.000000
    6 1.355513 3.966877 -2.086888 3.117064 -0.013041 1.928108
    7 -0.569091 0.222565 -0.397111 0.068136 -0.246714 -0.152089
    8 -2.180926 -0.574814 -0.787554 0.041930 -0.043827 -0.663988
    9 -0.287240 -1.405268 -0.074537 0.000000 0.000000 0.095993
    10 -0.931362 -2.045957 0.362517 0.183260 0.000000 -0.061087
    11 0.010424 -1.273300 -0.147357 0.279253 0.000000 0.000000
    12 0.011278 -0.878209 -0.342708 0.706858 0.000000 0.000000
    13 -0.149843 -2.089283 0.362516 0.314159 0.000000 0.000000
    14 0.012010 -1.623649 -0.122457 0.733038 0.000000 0.000000
    15 -0.010196 -1.032789 -0.489109 0.279253 0.000000 0.000000
    16 0.613185 -1.897942 0.362517 0.427606 0.000000 0.000000
    17 -0.000487 -1.577277 -0.172651 0.741765 0.000000 0.000000
    18 -0.000486 -0.997303 -0.424288 -0.026180 0.000000 0.000000
    19 1.449176 -1.715638 0.358114 0.462512 0.000000 0.000000
    20 0.021054 -1.176740 -0.217423 0.392699 0.000000 0.000000
    21 -0.056624 -0.823484 -0.460563 0.017453 0.000000 0.000000
    22 0.028514 1.174229 0.003077 0.478521 -0.317905 -0.285187
    23 7.279599 0.817010 -3.391950 0.015724 0.062984 -1.186954
  time 11
    0 -3.364535 -5.621416 -4.487082 1.565713 -1.501003 -1.565920
    1 1.161567 0.106627 0.000000 0.000000 0.000000 0.000000
    2 2.112626 -1.593401 0.000000 0.000000 0.000000 0.000000
    3 1.465898 -18.342178 0.000000 0.000000 0.000000 0.000000
    4 -1.892831 6.732486 0.728174 3.124140 0.000000 -3.141592
    5 0.206436 -12.693528 -0.019062 0.000000 1.570451 0.000000
    6 1.355513 3.966877 -2.086888 3.117064 -0.013041 1.928108
    7 -0.569091 0.222565 -0.397111 0.068136 -0.246714 -0.152089
    8 -2.180926 -0.574814 -0.787554 0.041930 -0.043827 -0.663988
    9 -0.287240 -1.405268 -0.074537 0.000000 0.000000 0.095993
    10 -0.931362 -2.045957 0.362517 0.183260 0.000000 -0.061087
    11 0.010424 -1.273300 -0.147357 0.279253 0.000000 0.000000
    12 0.011278 -0.878209 -0.342708 0.706858 0.000000 0.000000
    13 -0.149843 -2.089283 0.362516 0.314159 0.000000 0.000000
    14 0.012010 -1.623649 -0.122457 0.733038 0.000000 0.000000
    15 -0.010196 -1.032789 -0.489109 0.279253 0.000000 0.000000
    16 0.613185 -1.897942 0.362517 0.427606 0.000000 0.000000
    17 -0.000487 -1.577277 -0.172651 0.741765 0.000000 0.000000
    18 -0.000486 -0.997303 -0.424288 -0.026180 0.000000 0.000000
    19 1.449176 -1.715638 0.358114 0.462512 0.000000 0.000000
    20 0.021054 -1.176740 -0.217423 0.392699 0.000000 0.000000
    21 -0.056624 -0.823484 -0.460563 0.017453 0.000000 0.000000
    22 0.028514 1.174229 0.003077 0.478521 -0.317905 -0.285187
    23 7.279599 0.817010 -3.391950 0.015724 0.062984 -1.186954
  time 12
    0 -3.364535 -5.726888 -4.655056 1.564723 -1.512654 -1.564869
    1 1.161567 0.106627 0.000000 0.000000 0.000000 0.000000
    2 2.116532 -1.343393 0.000000 0.000000 0.000000 0.000000
    3 1.465898 -18.342178 0.000000 0.000000 0.000000 0.000000
    4 -1.892831 6.732486 0.728174 3.124140 0.000000 -3.141592
    5 0.245500 -12.916191 -0.019062 0.000000 1.570451 0.000000
    6 1.355513 3.966877 -2.086888 3.117064 -0.013041 1.928108
    7 -0.569091 0.222565 -0.397111 0.068136 -0.246714 -0.152089
    8 -2.180926 -0.574814 -0.787554 0.041930 -0.043827 -0.663988
    9 -0.287240 -1.405268 -0.074537 0.000000 0.000000 0.095993
    10 -0.931362 -2.045957 0.362517 0.183260 0.000000 -0.061087
    11 0.010424 -1.273300 -0.147357 0.279253 0.000000 0.000000
    12 0.011278 -0.878209 -0.342708 0.706858 0.000000 0.000000
    13 -0.149843 -2.089283 0.362516 0.314159 0.000000 0.000000
    14 0.012010 -1.623649 -0.122457 0.733038 0.000000 0.000000
    15 -0.010196 -1.032789 -0.489109 0.279253 0.000000 0.000000
    16 0.613185 -1.897942 0.362517 0.427606 0.000000 0.000000
    17 -0.000487 -1.577277 -0.172651 0.741765 0.000000 0.000000
    18 -0.000486 -0.997303 -0.424288 -0.026180 0.000000 0.000000
    19 1.449176 -1.715638 0.358114 0.462512 0.000000 0.000000
    20 0.021054 -1.176740 -0.217423 0.392699 0.000000 0.000000
    21 -0.056624 -0.823484 -0.460563 0.017453 0.000000 0.000000
    22 0.028514 1.174229 0.003077 0.478521 -0.317905 -0.285187
    23 7.279599 0.817010 -3.391950 0.015724 0.062984 -1.186954
  time 13
    0 -3.364535 -5.906581 -4.842562 1.563238 -1.524266 -1.563435
    1 1.161567 0.106627 0.000000 0.000000 0.000000 0.000000
    2 2.116532 -1.269172 0.000000 0.000000 0.000000 0.000000
    3 1.465898 -18.342178 0.000000 0.000000 0.000000 0.000000
    4 -1.892831 6.732486 0.728174 3.124140 0.000000 -3.141592
    5 0.253312 -12.978693 -0.019062 0.000000 1.570451 0.000000
    6 1.355513 3.966877 -2.086888 3.117064 -0.013041 1.928108
    7 -0.569091 0.222565 -0.397111 0.068136 -0.246714 -0.152089
    8 -2.180926 -0.574814 -0.787554 0.041930 -0.043827 -0.663988
    9 -0.287240 -1.405268 -0.074537 0.000000 0.000000 0.095993
    10 -0.931362 -2.045957 0.362517 0.183260 0.000000 -0.061087
    11 0.010424 -1.273300 -0.147357 0.279253 0.000000 0.000000
    12 0.011278 -0.878209 -0.342708 0.706858 0.000000 0.000000
    13 -0.149843 -2.089283 0.362516 0.314159 0.000000 0.000000
    14 0.012010 -1.623649 -0.122457 0.733038 0.000000 0.000000
    15 -0.010196 -1.032789 -0.489109 0.279253 0.000000 0.000000
    16 0.613185 -1.897942 0.362517 0.427606 0.000000 0.000000
    17 -0.000487 -1.577277 -0.172651 0.741765 0.000000 0.000000
    18 -0.000486 -0.997303 -0.424288 -0.026180 0.000000 0.000000
    19 1.449176 -1.715638 0.358114 0.462512 0.000000 0.000000
    20 0.021054 -1.176740 -0.217423 0.392699 0.000000 0.000000
    21 -0.056624 -0.823484 -0.460563 0.017453 0.000000 0.000000
    22 0.028514 1.174229 0.003077 0.478521 -0.317905 -0.285187
    23 7.279599 0.817010 -3.391950 0.015724 0.062984 -1.186954
  time 14
    0 -3.364535 -6.133151 -5.045693 1.560763 -1.535916 -1.560949
    1 1.161567 0.106627 0.000000 0.000000 0.000000 0.000000
    2 2.116532 -1.319955 0.000000 0.000000 0.000000 0.000000
    3 1.465898 -18.342178 0.000000 0.000000 0.000000 0.000000
    4 -1.892831 6.732486 0.728174 3.124140 0.000000 -3.141592
    5 0.245500 -12.931817 -0.019062 0.000000 1.570451 0.000000
    6 1.355513 3.966877 -2.086888 3.117064 -0.013041 1.928108
    7 -0.569091 0.222565 -0.397111 0.068136 -0.246714 -0.152089
    8 -2.180926 -0.574814 -0.787554 0.041930 -0.043827 -0.663988
    9 -0.287240 -1.405268 -0.074537 0.000000 0.000000 0.095993
    10 -0.931362 -2.045957 0.362517 0.183260 0.000000 -0.061087
    11 0.010424 -1.273300 -0.147357 0.279253 0.000000 0.000000
    12 0.011278 -0.878209 -0.342708 0.706858 0.000000 0.000000
    13 -0.149843 -2.089283 0.362516 0.314159 0.000000 0.000000
    14 0.012010 -1.623649 -0.122457 0.733038 0.000000 0.000000
    15 -0.010196 -1.032789 -0.489109 0.279253 0.000000 0.000000
    16 0.613185 -1.897942 0.362517 0.427606 0.000000 0.000000
    17 -0.000487 -1.577277 -0.172651 0.741765 0.000000 0.000000
    18 -0.000486 -0.997303 -0.424288 -0.026180 0.000000 0.000000
    19 1.449176 -1.715638 0.358114 0.462512 0.000000 0.000000
    20 0.021054 -1.176740 -0.217423 0.392699 0.000000 0.000000
    21 -0.056624 -0.823484 -0.460563 0.017453 0.000000 0.000000
    22 0.028514 1.174229 0.003077 0.478521 -0.317905 -0.285187
    23 7.279599 0.817010 -3.391950 0.015724 0.062984 -1.186954
  time 15
    0 -3.364535 -6.383158 -5.252730 1.555812 -1.547529 -1.555977
    1 1.161567 0.106627 0.000000 0.000000 0.000000 0.000000
    2 2.112626 -1.433240 0.000000 0.000000 0.000000 0.000000
    3 1.465898 -18.342178 0.000000 0.000000 0.000000 0.000000
    4 -1.892831 6.732486 0.728174 3.124140 0.000000 -3.141592
    5 0.229874 -12.834157 -0.019062 0.000000 1.570451 0.000000
    6 1.355513 3.966877 -2.086888 3.117064 -0.013041 1.928108
    7 -0.569091 0.222565 -0.397111 0.068136 -0.246714 -0.152089
    8 -2.180926 -0.574814 -0.787554 0.041930 -0.043827 -0.663988
    9 -0.287240 -1.405268 -0.074537 0.000000 0.000000 0.095993
    10 -0.931362 -2.045957 0.362517 0.183260 0.000000 -0.061087
    11 0.010424 -1.273300 -0.147357 0.279253 0.000000 0.000000
    12 0.011278 -0.878209 -0.342708 0.706858 0.000000 0.000000
    13 -0.149843 -2.089283 0.362516 0.314159 0.000000 0.000000
    14 0.012010 -1.623649 -0.122457 0.733038 0.000000 0.000000
    15 -0.010196 -1.032789 -0.489109 0.279253 0.000000 0.000000
    16 0.613185 -1.897942 0.362517 0.427606 0.000000 0.000000
    17 -0.000487 -1.577277 -0.172651 0.741765 0.000000 0.000000
    18 -0.000486 -0.997303 -0.424288 -0.026180 0.000000 0.000000
    19 1.449176 -1.715638 0.358114 0.462512 0.000000 0.000000
    20 0.021054 -1.176740 -0.217423 0.392699 0.000000 0.000000
    21 -0.056624 -0.823484 -0.460563 0.017453 0.000000 0.000000
    22 0.028514 1.174229 0.003077 0.478521 -0.317905 -0.285187
    23 7.279599 0.817010 -3.391950 0.015724 0.062984 -1.186954
  time 16
    0 -3.364535 -6.633166 -5.463674 -0.000083 -1.559179 -0.000072
    1 1.161567 0.106627 0.000000 0.000000 0.000000 0.000000
    2 2.112626 -1.546525 0.000000 0.000000 0.000000 0.000000
    3 1.465898 -18.342178 0.000000 0.000000 0.000000 0.000000
    4 -1.892831 6.732486 0.728174 3.124140 0.000000 -3.141592
    5 0.214249 -12.736498 -0.019062 0.000000 1.570451 0.000000
    6 1.355513 3.966877 -2.086888 3.117064 -0.013041 1.928108
    7 -0.569091 0.222565 -0.397111 0.068136 -0.246714 -0.152089
    8 -2.180926 -0.574814 -0.787554 0.041930 -0.043827 -0.663988
    9 -0.287240 -1.405268 -0.074537 0.000000 0.000000 0.095993
    10 -0.931362 -2.045957 0.362517 0.183260 0.000000 -0.061087
    11 0.010424 -1.273300 -0.147357 0.279253 0.000000 0.000000
    12 0.011278 -0.878209 -0.342708 0.706858 0.000000 0.000000
    13 -0.149843 -2.089283 0.362516 0.314159 0.000000 0.000000
    14 0.012010 -1.623649 -0.122457 0.733038 0.000000 0.000000
    15 -0.010196 -1.032789 -0.489109 0.279253 0.000000 0.000000
    16 0.613185 -1.897942 0.362517 0.427606 0.000000 0.000000
    17 -0.000487 -1.577277 -0.172651 0.741765 0.000000 0.000000
    18 -0.000486 -0.997303 -0.424288 -0.026180 0.000000 0.000000
    19 1.449176 -1.715638 0.358114 0.462512 0.000000 0.000000
    20 0.021054 -1.176740 -0.217423 0.392699 0.000000 0.000000
    21 -0.056624 -0.823484 -0.460563 0.017453 0.000000 0.000000
    22 0.028514 1.174229 0.003077 0.478521 -0.317905 -0.285187
    23 7.279599 0.817010 -3.391950 0.015724 0.062984 -1.186954
end
