// Created by Crowbar 0.62
version 1
nodes
  0 "ValveBiped.Bip01_R_Hand" -1
end
skeleton
  time 0
    0 -0.678223 13.179688 4.585938 -3.137281 0.174532 -1.570419
  time 1
    0 -0.678223 13.179688 4.585938 -3.137281 0.174532 -1.570419
  time 2
    0 -0.678223 13.179688 4.585938 -3.137281 0.174532 -1.570419
  time 3
    0 -0.678223 13.179688 4.585938 -3.137281 0.174532 -1.570419
  time 4
    0 -0.678223 13.179688 4.585938 -3.137281 0.174532 -1.570419
end
