// Created by Crowbar 0.62

$modelname "ns\weapons\w_sg.mdl"

$bodygroup "body"
{
	studio "w_sg_ref"
}


$surfaceprop "weapon"

$contents "solid"

$illumposition -0.092 7.788 5.677

$cdmaterials "ns\models\w_sg\"

$attachment "muzzle" "ValveBiped.Bip01_R_Hand" 16.00 -1.00 -5.00 rotate 0 0 0
$attachment "shell" "ValveBiped.Bip01_R_Hand" 7.00 -1.00 -5.00 rotate 30 -90 -90

$cbox 0 0 0 0 0 0

$bbox -22.295 -0.912 -5.555 19.88 0.889 16.148

$definebone "ValveBiped.Bip01_R_Hand" "" 0 0 0 0 0 0 0 0 0 0 0 0

$sequence "w_sg_ref" {
	"w_sg_ref.smd"
	fadein 0.2
	fadeout 0.2
	fps 1
	loop
}

$sequence "attack_player" {
	"attack_player.smd"
	activity "ACT_VM_PRIMARYATTACK" -1
	{ event 5003 0 "2" }
	{ event AE_CLIENT_EFFECT_ATTACH 0 "ShotgunShellEject 2 75" }
	fadein 0.2
	fadeout 0.2
	fps 30
}

$collisionmodel "w_sg_ref.smd"
{
	$mass 1
	$inertia 1
	$damping 0
	$rotdamping 0
	$rootbone " "

}
